{
    "KPlugin": {
        "Description": "Provides change notification for network folders",
        "Description[ar]": "يقدم تنبيه إذا ما غيرت مجلدات الشبكة",
        "Description[az]": "Şəbəkə qovluqlarındakı dəyişiklik bildirişini göstərir",
        "Description[be]": "Апавяшчае пра змены ў сеткавых каталогах",
        "Description[bg]": "Уведомления за промени в мрежови папки",
        "Description[ca@valencia]": "Proporciona notificacions de canvis en carpetes de xarxa",
        "Description[ca]": "Proporciona notificacions de canvis en carpetes de xarxa",
        "Description[cs]": "Poskytuje upozornění na změny síťových složek",
        "Description[de]": "Benachrichtigt den Anwender über Änderungen an Dateien in Netzwerkordnern",
        "Description[en_GB]": "Provides change notification for network folders",
        "Description[eo]": "Provizas ŝanĝosciigon por retaj dosierujoj",
        "Description[es]": "Proporciona notificación de cambios en carpetas de red",
        "Description[eu]": "Sareko karpetetako aldaketen jakinarazpenak ematen ditu",
        "Description[fi]": "Tarjoaa verkkokansioiden muuttumisilmoitukset",
        "Description[fr]": "Fournit une notification de modification pour les dossiers sur réseau",
        "Description[gl]": "Fornece notificacións dos cambios en cartafoles en rede",
        "Description[he]": "מספק הודעות שינויים לתיקיות רשת",
        "Description[hu]": "Értesítést biztosít hálózati mappák változásairól",
        "Description[ia]": "Il forni notification de cambio pro dossieres de rete",
        "Description[ie]": "Provide notificationes de cambios por fólderes in li rete",
        "Description[is]": "Tilkynningaforrit fyrir breytingar á fjartengdum netmöppum",
        "Description[it]": "Fornisce notifiche delle modifiche per le cartelle di rete",
        "Description[ka]": "ქსელური საქაღალდეების ცვლილების შესახებ შეტყობინება",
        "Description[ko]": "네트워크 폴더의 변경 사항 알림",
        "Description[lt]": "Teikia pranešimus apie pakeitimus tinklo aplankuose",
        "Description[nl]": "Levert notificatie voor wijzigingen in netwerkmappen",
        "Description[nn]": "Gjev endringsvarslingar for nettverksmapper",
        "Description[pa]": "ਨੈੱਟਵਰਕ ਫੋਲਡਰਾਂ ਲਈ ਬਦਲਾਅ ਸੂਚਨਾ ਦਿੰਦਾ ਹੈ",
        "Description[pl]": "Powiadamia o zmianach w katalogach sieciowych",
        "Description[pt]": "Oferece uma notificação de mudanças em pastas na rede",
        "Description[pt_BR]": "Fornece notificações de alterações para pastas em rede",
        "Description[ro]": "Oferă notificări despre schimbările dosarelor din rețea",
        "Description[ru]": "Отслеживание изменений в сетевых папках",
        "Description[sa]": "संजालपुटस्य कृते परिवर्तनसूचना प्रदाति",
        "Description[sk]": "Poskytuje upozornenia o zmenách sieťových priečinkov",
        "Description[sl]": "Zagotavlja obvestilo o spremembi omrežnih map",
        "Description[ta]": "பிணைய அடைவுகள் மாறினால் அறிவிக்கும்",
        "Description[tr]": "Ağ klasörleri için değişiklik bildirimleri sağlar",
        "Description[uk]": "Сповіщення про зміну стану мережевих тек",
        "Description[vi]": "Cung cấp thông báo thay đổi cho các thư mục mạng",
        "Description[x-test]": "xxProvides change notification for network foldersxx",
        "Description[zh_CN]": "提供网络文件夹的更改通知",
        "Description[zh_TW]": "為網路資料夾提供變更通知",
        "Name": "Remote URL Change Notifier",
        "Name[ar]": "منبه تغيير العنوان البعيد",
        "Name[az]": "Serverdə ünvan (URL) dəyişikliyi bildirişi",
        "Name[be]": "Апавяшчэнне пра змену адлеглых URL-адрасоў",
        "Name[bg]": "Уведомител за промени в отдалечени URL-адреси",
        "Name[ca@valencia]": "Notificador de canvi d'URL remot",
        "Name[ca]": "Notificador de canvi d'URL remot",
        "Name[cs]": "Démon upozorňování na vzdálená URL",
        "Name[de]": "Überwachung für Dateien auf Fremdrechnern",
        "Name[en_GB]": "Remote URL Change Notifier",
        "Name[eo]": "Fora URL-Ŝanĝa Sciigilo",
        "Name[es]": "Notificador de cambio de URL remota",
        "Name[eu]": "Urruneko URL aldaketa jakinarazlea",
        "Name[fi]": "Etäverkko-osoitteen muuttumisilmoitin",
        "Name[fr]": "Supprimer le notificateur de changement d'URL",
        "Name[gl]": "Notificador de cambios en URL remotas",
        "Name[he]": "מודיע על שינויים כתובות מרוחקות",
        "Name[hu]": "Távoli URL-változási értesítő",
        "Name[ia]": "Notificator de cambio de URL remote",
        "Name[ie]": "Notificator de cambios de lontan adresses",
        "Name[is]": "Tilkynningar á slóðabreytingum (URL)",
        "Name[it]": "Notificatore del cambiamento dell'URL remoto",
        "Name[ka]": "დაშორებული URL-ის ცვლილებების შეტყობინება",
        "Name[ko]": "원격 URL 변경 알리미",
        "Name[lt]": "Nuotolinių URL pakeitimų pranešiklis",
        "Name[nl]": "Notificatie van wijziging in URL-adres op afstand",
        "Name[nn]": "Varsling for endringar på nettadresser",
        "Name[pa]": "ਰਿਮੋਟ URL ਬਦਲਾਅ ਨੋਟੀਫਾਇਰ",
        "Name[pl]": "Powiadamianie o zmianach zdalnych URL-i",
        "Name[pt]": "Notificação de Mudança do URL Remoto",
        "Name[pt_BR]": "Notificador da alteração de URLs remotas",
        "Name[ro]": "Notificare pentru schimbare adresă URL distant",
        "Name[ru]": "Слежение за изменениями URL",
        "Name[sa]": "दूरस्थः URL परिवर्तनसूचकः",
        "Name[sk]": "\tMonitor zmien vzdialených URL",
        "Name[sl]": "Obvestilnik spremembe oddaljenega URL",
        "Name[ta]": "தொலை முகவரி மாற்ற அறிவிப்பி",
        "Name[tr]": "Uzak URL Değişim Bildiricisi",
        "Name[uk]": "Сповіщення про зміну віддаленої адреси (URL)",
        "Name[vi]": "Trình thông báo thay đổi URL ở xa",
        "Name[x-test]": "xxRemote URL Change Notifierxx",
        "Name[zh_CN]": "远程 URL 更改通知程序",
        "Name[zh_TW]": "遠端網址變更通知工具"
    },
    "X-KDE-Kded-autoload": true,
    "X-KDE-Kded-load-on-demand": true
}
